{
  "posts": [
    {
      "id": 1,
      "title": "json-server",
      "author": "typicode"
    }
  ],
  "comments": [
    {
      "id": 1,
      "body": "some comment",
      "postId": 1
    },
    {
      "id": 2
    },
    {
      "body": "Probando",
      "postId": 2,
      "id": 3
    },
    {
      "body": "Probando",
      "postId": 2,
      "id": 4
    }
  ],
  "profile": {
    "name": "typicode"
  }
}